<?xml version="1.0" encoding="UTF-8" standalone="no"?>
<svg
   xmlns:dc="http://purl.org/dc/elements/1.1/"
   xmlns:cc="http://creativecommons.org/ns#"
   xmlns:rdf="http://www.w3.org/1999/02/22-rdf-syntax-ns#"
   xmlns:svg="http://www.w3.org/2000/svg"
   xmlns="http://www.w3.org/2000/svg"
   id="svg8"
   version="1.1"
   viewBox="0 0 270.93333 270.93334"
   height="1024"
   width="1024">
  <defs
     id="defs2" />
  <metadata
     id="metadata5">
    <rdf:RDF>
      <cc:Work
         rdf:about="">
        <dc:format>image/svg+xml</dc:format>
        <dc:type
           rdf:resource="http://purl.org/dc/dcmitype/StillImage" />
        <dc:title></dc:title>
      </cc:Work>
    </rdf:RDF>
  </metadata>
  <g
     style="display:inline"
     id="layer2" />
  <g
     style="display:inline;stroke-width:1.00012501;stroke-miterlimit:4;stroke-dasharray:none"
     transform="translate(0,-26.06665)"
     id="layer1">
    <g
       id="g885"
       style="stroke-width:1.00012501;stroke-miterlimit:4;stroke-dasharray:none">
      <g
         style="font-style:normal;font-variant:normal;font-weight:normal;font-stretch:normal;font-size:16px;line-height:1.25;font-family:'Times New Roman';-inkscape-font-specification:'Times New Roman, Normal';font-variant-ligatures:normal;font-variant-caps:normal;font-variant-numeric:normal;font-feature-settings:normal;text-align:start;letter-spacing:0px;word-spacing:0px;writing-mode:lr-tb;text-anchor:start;fill:#606984;fill-opacity:1;stroke:#ffffff;stroke-opacity:0.99455053;stroke-width:0.71484376;stroke-miterlimit:4;stroke-dasharray:none"
         id="flowRoot829"
         transform="matrix(1.5817045,0,0,1.2375449,-13.818513,-558.6246)"
         aria-label="O">
        <g
           id="g911"
           style="opacity:1;stroke-width:0.71484376;stroke-miterlimit:4;stroke-dasharray:none;stroke:#ffffff;stroke-opacity:0.99455053">
          <path
             style="color:#000000;font-style:normal;font-variant:normal;font-weight:normal;font-stretch:normal;font-size:192px;line-height:1.25;font-family:Eunomia;-inkscape-font-specification:'Eunomia, Normal';font-variant-ligatures:normal;font-variant-position:normal;font-variant-caps:normal;font-variant-numeric:normal;font-variant-alternates:normal;font-variant-east-asian:normal;font-feature-settings:normal;font-variation-settings:normal;text-indent:0;text-align:start;text-decoration:none;text-decoration-line:none;text-decoration-style:solid;text-decoration-color:#000000;letter-spacing:0px;word-spacing:0px;text-transform:none;writing-mode:lr-tb;direction:ltr;text-orientation:mixed;dominant-baseline:auto;baseline-shift:baseline;text-anchor:start;white-space:normal;shape-padding:0;shape-margin:0;inline-size:0;clip-rule:nonzero;display:inline;overflow:visible;visibility:visible;isolation:auto;mix-blend-mode:normal;color-interpolation:sRGB;color-interpolation-filters:linearRGB;solid-color:#000000;solid-opacity:1;vector-effect:none;fill:#ffffff;fill-opacity:1;fill-rule:nonzero;stroke:#ffffff;stroke-width:0.71484376;stroke-linecap:butt;stroke-linejoin:miter;stroke-miterlimit:4;stroke-dasharray:none;stroke-dashoffset:0;stroke-opacity:0.99455053;color-rendering:auto;image-rendering:auto;shape-rendering:auto;text-rendering:auto;enable-background:accumulate;stop-color:#000000;stop-opacity:1"
             d="m 118.29084,537.82211 c -1.344,-22.656 -14.4,-30.72 -28.991996,-30.72 h -2.688 c -14.592,0 -27.648,8.064 -28.992,30.72 -0.384,7.488 -0.384,22.08 -0.384,31.488 v 17.664 c 0,9.408 0,24 0.384,31.488 1.344,22.656 14.4,30.72 28.992,30.72 h 2.688 c 14.591996,0 27.647996,-8.064 28.991996,-30.72 0.384,-7.488 0.384,-22.08 0.384,-31.488 v -17.664 c 0,-9.408 0,-24 -0.384,-31.488 z m -14.976,50.688 c 0,7.488 0,21.12 -0.384,28.032 -0.768,13.632 -6.527996,18.432 -13.631996,18.432 h -2.688 c -7.104,0 -12.864,-4.8 -13.632,-18.432 -0.384,-6.912 -0.384,-20.544 -0.384,-28.032 v -20.736 c 0,-7.488 0,-21.12 0.384,-28.032 0.768,-13.632 6.528,-18.432 13.632,-18.432 h 2.688 c 7.104,0 12.863996,4.8 13.631996,18.432 0.384,6.912 0.384,20.544 0.384,28.032 z"
             id="path913" />
          <path
             style="color:#000000;font-style:normal;font-variant:normal;font-weight:normal;font-stretch:normal;font-size:192px;line-height:1.25;font-family:Eunomia;-inkscape-font-specification:'Eunomia, Normal';font-variant-ligatures:normal;font-variant-position:normal;font-variant-caps:normal;font-variant-numeric:normal;font-variant-alternates:normal;font-variant-east-asian:normal;font-feature-settings:normal;font-variation-settings:normal;text-indent:0;text-align:start;text-decoration:none;text-decoration-line:none;text-decoration-style:solid;text-decoration-color:#000000;letter-spacing:0px;word-spacing:0px;text-transform:none;writing-mode:lr-tb;direction:ltr;text-orientation:mixed;dominant-baseline:auto;baseline-shift:baseline;text-anchor:start;white-space:normal;shape-padding:0;shape-margin:0;inline-size:0;clip-rule:nonzero;display:inline;overflow:visible;visibility:visible;isolation:auto;mix-blend-mode:normal;color-interpolation:sRGB;color-interpolation-filters:linearRGB;solid-color:#000000;solid-opacity:1;vector-effect:none;fill:#ffffed;fill-opacity:1;fill-rule:nonzero;stroke:#ffffff;stroke-width:0.71484376;stroke-linecap:butt;stroke-linejoin:miter;stroke-miterlimit:4;stroke-dasharray:none;stroke-dashoffset:0;stroke-opacity:0.99455053;color-rendering:auto;image-rendering:auto;shape-rendering:auto;text-rendering:auto;enable-background:accumulate;stop-color:#000000;stop-opacity:1"
             d="m 86.611328,506.60156 c -7.388105,0 -14.436929,2.04681 -19.802734,6.9961 -5.365806,4.94928 -9.011993,12.77527 -9.689453,24.19531 v 0.002 0.002 c -0.385702,7.52118 -0.384766,22.10567 -0.384766,31.51367 v 17.66406 c 0,9.408 -9.36e-4,23.99249 0.384766,31.51367 v 0.002 0.002 c 0.67746,11.42004 4.323647,19.24407 9.689453,24.19336 5.365805,4.94928 12.414629,6.99609 19.802734,6.99609 h 2.6875 c 7.388103,0 14.436932,-2.04681 19.802732,-6.99609 5.36581,-4.94929 9.01004,-12.77332 9.6875,-24.19336 l 0.002,-0.002 v -0.002 c 0.3857,-7.52118 0.38476,-22.10567 0.38476,-31.51367 v -17.66406 c 0,-9.408 9.4e-4,-23.99249 -0.38476,-31.51367 v -0.002 l -0.002,-0.002 c -0.67746,-11.42004 -4.32169,-19.24603 -9.6875,-24.19531 -5.3658,-4.94929 -12.414629,-6.9961 -19.802732,-6.9961 z m 0,1 h 2.6875 c 7.203893,0 13.978802,1.98571 19.125002,6.73242 5.14619,4.74672 8.70065,12.28162 9.36719,23.51758 0.38215,7.45567 0.38476,22.05215 0.38476,31.45899 v 17.66406 c 0,9.408 -0.002,24.00612 -0.38476,31.46094 -0.66718,11.23365 -4.22164,18.76949 -9.36719,23.51562 -5.1462,4.74672 -11.921109,6.73047 -19.125002,6.73047 h -2.6875 c -7.203895,0 -13.978806,-1.98375 -19.125,-6.73047 -5.146194,-4.74672 -8.7026,-12.28357 -9.36914,-23.51953 l 0.002,0.004 C 57.736889,610.98082 57.734422,596.3827 57.734422,586.9747 v -17.66406 c 0,-9.408 0.0025,-24.00807 0.384766,-31.46289 l -0.002,0.004 c 0.66654,-11.23596 4.222946,-18.77086 9.36914,-23.51758 5.146194,-4.74671 11.921105,-6.73242 19.125,-6.73242 z m 0,13.20899 c -3.664612,0 -7.056179,1.2642 -9.576172,4.2832 -2.519993,3.019 -4.166924,7.7383 -4.554687,14.62109 -0.38602,6.94836 -0.384766,20.5706 -0.384766,28.0586 v 20.73633 c 0,7.488 -0.0013,21.11219 0.384766,28.06054 0.387763,6.8828 2.034694,11.60209 4.554687,14.6211 2.519993,3.019 5.91156,4.2832 9.576172,4.2832 h 2.6875 c 3.664613,0 7.05618,-1.2642 9.576172,-4.2832 2.51999,-3.01901 4.16692,-7.7383 4.55469,-14.6211 0.38602,-6.94835 0.38476,-20.57254 0.38476,-28.06054 v -20.73633 c 0,-7.488 0.001,-21.11024 -0.38476,-28.0586 -0.38777,-6.88279 -2.0347,-11.60209 -4.55469,-14.62109 -2.519992,-3.019 -5.911559,-4.2832 -9.576172,-4.2832 z m 0,1 h 2.6875 c 3.439388,0 6.480588,1.13483 8.808594,3.92383 2.328008,2.78899 3.943978,7.28595 4.324218,14.03515 0.38198,6.87565 0.38281,20.51591 0.38281,28.00391 v 20.73633 c 0,7.488 -8.3e-4,21.12826 -0.38281,28.0039 -0.38024,6.7492 -1.99621,11.24616 -4.324218,14.03516 -2.328006,2.789 -5.369206,3.92578 -8.808594,3.92578 h -2.6875 c -3.439387,0 -6.480587,-1.13678 -8.808594,-3.92578 -2.328007,-2.789 -3.943982,-7.28596 -4.324218,-14.03516 -0.381981,-6.87564 -0.382813,-20.5159 -0.382813,-28.0039 v -20.73633 c 0,-7.488 8.32e-4,-21.12826 0.382813,-28.00391 0.380236,-6.7492 1.996211,-11.24616 4.324218,-14.03515 2.328007,-2.789 5.369207,-3.92383 8.808594,-3.92383 z"
             id="path915" />
        </g>
      </g>
      <g
         style="font-style:normal;font-variant:normal;font-weight:normal;font-stretch:normal;font-size:16px;line-height:1.25;font-family:'Times New Roman';-inkscape-font-specification:'Times New Roman, Normal';font-variant-ligatures:normal;font-variant-caps:normal;font-variant-numeric:normal;font-feature-settings:normal;text-align:start;letter-spacing:0px;word-spacing:0px;writing-mode:lr-tb;text-anchor:start;fill:#606984;fill-opacity:1;stroke:#606984;stroke-opacity:1;stroke-width:1.13586226;stroke-miterlimit:4;stroke-dasharray:none"
         id="flowRoot853"
         transform="matrix(0.99543017,0,0,0.77883675,40.307426,47.78714)" />
      <g
         id="g905"
         transform="translate(0.00558004,11.038453)"
         style="stroke-width:1.00012501;stroke-miterlimit:4;stroke-dasharray:none">
        <path
           style="color:#000000;font-style:normal;font-variant:normal;font-weight:normal;font-stretch:normal;font-size:medium;line-height:normal;font-family:sans-serif;font-variant-ligatures:normal;font-variant-position:normal;font-variant-caps:normal;font-variant-numeric:normal;font-variant-alternates:normal;font-variant-east-asian:normal;font-feature-settings:normal;font-variation-settings:normal;text-indent:0;text-align:start;text-decoration:none;text-decoration-line:none;text-decoration-style:solid;text-decoration-color:#000000;letter-spacing:normal;word-spacing:normal;text-transform:none;writing-mode:lr-tb;direction:ltr;text-orientation:mixed;dominant-baseline:auto;baseline-shift:baseline;text-anchor:start;white-space:normal;shape-padding:0;shape-margin:0;inline-size:0;clip-rule:nonzero;display:inline;overflow:visible;visibility:visible;isolation:auto;mix-blend-mode:normal;color-interpolation:sRGB;color-interpolation-filters:linearRGB;solid-color:#000000;solid-opacity:1;vector-effect:none;fill:#ffffff;fill-opacity:1;fill-rule:nonzero;stroke:none;stroke-width:1.00012501;stroke-linecap:round;stroke-linejoin:miter;stroke-miterlimit:4;stroke-dasharray:none;stroke-dashoffset:0;stroke-opacity:1;color-rendering:auto;image-rendering:auto;shape-rendering:auto;text-rendering:auto;enable-background:accumulate;stop-color:#000000;stop-opacity:1"
           d="m 86.338107,259.34619 77.703563,-0.44621"
           id="path907" />
        <path
           style="color:#000000;font-style:normal;font-variant:normal;font-weight:normal;font-stretch:normal;font-size:medium;line-height:normal;font-family:sans-serif;font-variant-ligatures:normal;font-variant-position:normal;font-variant-caps:normal;font-variant-numeric:normal;font-variant-alternates:normal;font-variant-east-asian:normal;font-feature-settings:normal;font-variation-settings:normal;text-indent:0;text-align:start;text-decoration:none;text-decoration-line:none;text-decoration-style:solid;text-decoration-color:#000000;letter-spacing:normal;word-spacing:normal;text-transform:none;writing-mode:lr-tb;direction:ltr;text-orientation:mixed;dominant-baseline:auto;baseline-shift:baseline;text-anchor:start;white-space:normal;shape-padding:0;shape-margin:0;inline-size:0;clip-rule:nonzero;display:inline;overflow:visible;visibility:visible;isolation:auto;mix-blend-mode:normal;color-interpolation:sRGB;color-interpolation-filters:linearRGB;solid-color:#000000;solid-opacity:1;vector-effect:none;fill:#ffffff;fill-opacity:1;fill-rule:nonzero;stroke:none;stroke-width:1.00012501;stroke-linecap:round;stroke-linejoin:miter;stroke-miterlimit:4;stroke-dasharray:none;stroke-dashoffset:0;stroke-opacity:1;color-rendering:auto;image-rendering:auto;shape-rendering:auto;text-rendering:auto;enable-background:accumulate;stop-color:#000000;stop-opacity:1"
           d="m 163.99219,250.33398 -77.703128,0.44727 a 8.5658503,8.5658503 0 0 0 -8.517578,8.61328 8.5658503,8.5658503 0 0 0 8.615235,8.51758 l 77.705081,-0.44727 a 8.5658503,8.5658503 0 0 0 8.51562,-8.61328 8.5658503,8.5658503 0 0 0 -8.61523,-8.51758 z"
           id="path909" />
      </g>
      <g
         id="g899"
         transform="translate(0.00558004,-3.2490476)"
         style="stroke-width:1.00012501;stroke-miterlimit:4;stroke-dasharray:none">
        <path
           style="color:#000000;font-style:normal;font-variant:normal;font-weight:normal;font-stretch:normal;font-size:medium;line-height:normal;font-family:sans-serif;font-variant-ligatures:normal;font-variant-position:normal;font-variant-caps:normal;font-variant-numeric:normal;font-variant-alternates:normal;font-variant-east-asian:normal;font-feature-settings:normal;font-variation-settings:normal;text-indent:0;text-align:start;text-decoration:none;text-decoration-line:none;text-decoration-style:solid;text-decoration-color:#000000;letter-spacing:normal;word-spacing:normal;text-transform:none;writing-mode:lr-tb;direction:ltr;text-orientation:mixed;dominant-baseline:auto;baseline-shift:baseline;text-anchor:start;white-space:normal;shape-padding:0;shape-margin:0;inline-size:0;clip-rule:nonzero;display:inline;overflow:visible;visibility:visible;isolation:auto;mix-blend-mode:normal;color-interpolation:sRGB;color-interpolation-filters:linearRGB;solid-color:#000000;solid-opacity:1;vector-effect:none;fill:#ffffff;fill-opacity:1;fill-rule:nonzero;stroke:none;stroke-width:1.00012501;stroke-linecap:butt;stroke-linejoin:miter;stroke-miterlimit:4;stroke-dasharray:none;stroke-dashoffset:0;stroke-opacity:1;color-rendering:auto;image-rendering:auto;shape-rendering:auto;text-rendering:auto;enable-background:accumulate;stop-color:#000000;stop-opacity:1"
           d="M 163.83522,72.48188 V 41.543271"
           id="path901" />
        <path
           style="color:#000000;font-style:normal;font-variant:normal;font-weight:normal;font-stretch:normal;font-size:medium;line-height:normal;font-family:sans-serif;font-variant-ligatures:normal;font-variant-position:normal;font-variant-caps:normal;font-variant-numeric:normal;font-variant-alternates:normal;font-variant-east-asian:normal;font-feature-settings:normal;font-variation-settings:normal;text-indent:0;text-align:start;text-decoration:none;text-decoration-line:none;text-decoration-style:solid;text-decoration-color:#000000;letter-spacing:normal;word-spacing:normal;text-transform:none;writing-mode:lr-tb;direction:ltr;text-orientation:mixed;dominant-baseline:auto;baseline-shift:baseline;text-anchor:start;white-space:normal;shape-padding:0;shape-margin:0;inline-size:0;clip-rule:nonzero;display:inline;overflow:visible;visibility:visible;isolation:auto;mix-blend-mode:normal;color-interpolation:sRGB;color-interpolation-filters:linearRGB;solid-color:#000000;solid-opacity:1;vector-effect:none;fill:#ffffff;fill-opacity:1;fill-rule:nonzero;stroke:none;stroke-width:1.00012501;stroke-linecap:butt;stroke-linejoin:miter;stroke-miterlimit:4;stroke-dasharray:none;stroke-dashoffset:0;stroke-opacity:1;color-rendering:auto;image-rendering:auto;shape-rendering:auto;text-rendering:auto;enable-background:accumulate;stop-color:#000000;stop-opacity:1"
           d="m 159.96094,41.542969 v 30.939453 h 7.74804 V 41.542969 Z"
           id="path903" />
      </g>
      <g
         id="g893"
         transform="translate(0.00558004,-3.2490476)"
         style="stroke-width:1.00012501;stroke-miterlimit:4;stroke-dasharray:none">
        <path
           style="color:#000000;font-style:normal;font-variant:normal;font-weight:normal;font-stretch:normal;font-size:medium;line-height:normal;font-family:sans-serif;font-variant-ligatures:normal;font-variant-position:normal;font-variant-caps:normal;font-variant-numeric:normal;font-variant-alternates:normal;font-variant-east-asian:normal;font-feature-settings:normal;font-variation-settings:normal;text-indent:0;text-align:start;text-decoration:none;text-decoration-line:none;text-decoration-style:solid;text-decoration-color:#000000;letter-spacing:normal;word-spacing:normal;text-transform:none;writing-mode:lr-tb;direction:ltr;text-orientation:mixed;dominant-baseline:auto;baseline-shift:baseline;text-anchor:start;white-space:normal;shape-padding:0;shape-margin:0;inline-size:0;clip-rule:nonzero;display:inline;overflow:visible;visibility:visible;isolation:auto;mix-blend-mode:normal;color-interpolation:sRGB;color-interpolation-filters:linearRGB;solid-color:#000000;solid-opacity:1;vector-effect:none;fill:#ffffff;fill-opacity:1;fill-rule:nonzero;stroke:none;stroke-width:1.00012501;stroke-linecap:butt;stroke-linejoin:miter;stroke-miterlimit:4;stroke-dasharray:none;stroke-dashoffset:0;stroke-opacity:1;color-rendering:auto;image-rendering:auto;shape-rendering:auto;text-rendering:auto;enable-background:accumulate;stop-color:#000000;stop-opacity:1"
           d="m 187.56079,91.045053 h 39.54263"
           id="path895" />
        <path
           style="color:#000000;font-style:normal;font-variant:normal;font-weight:normal;font-stretch:normal;font-size:medium;line-height:normal;font-family:sans-serif;font-variant-ligatures:normal;font-variant-position:normal;font-variant-caps:normal;font-variant-numeric:normal;font-variant-alternates:normal;font-variant-east-asian:normal;font-feature-settings:normal;font-variation-settings:normal;text-indent:0;text-align:start;text-decoration:none;text-decoration-line:none;text-decoration-style:solid;text-decoration-color:#000000;letter-spacing:normal;word-spacing:normal;text-transform:none;writing-mode:lr-tb;direction:ltr;text-orientation:mixed;dominant-baseline:auto;baseline-shift:baseline;text-anchor:start;white-space:normal;shape-padding:0;shape-margin:0;inline-size:0;clip-rule:nonzero;display:inline;overflow:visible;visibility:visible;isolation:auto;mix-blend-mode:normal;color-interpolation:sRGB;color-interpolation-filters:linearRGB;solid-color:#000000;solid-opacity:1;vector-effect:none;fill:#ffffff;fill-opacity:1;fill-rule:nonzero;stroke:none;stroke-width:1.00012501;stroke-linecap:butt;stroke-linejoin:miter;stroke-miterlimit:4;stroke-dasharray:none;stroke-dashoffset:0;stroke-opacity:1;color-rendering:auto;image-rendering:auto;shape-rendering:auto;text-rendering:auto;enable-background:accumulate;stop-color:#000000;stop-opacity:1"
           d="m 187.56055,87.171875 v 7.746094 h 39.54297 v -7.746094 z"
           id="path897" />
      </g>
      <g
         id="g887"
         transform="translate(0.00558004,-3.2490476)"
         style="stroke-width:1.00012501;stroke-miterlimit:4;stroke-dasharray:none">
        <path
           style="color:#000000;font-style:normal;font-variant:normal;font-weight:normal;font-stretch:normal;font-size:medium;line-height:normal;font-family:sans-serif;font-variant-ligatures:normal;font-variant-position:normal;font-variant-caps:normal;font-variant-numeric:normal;font-variant-alternates:normal;font-variant-east-asian:normal;font-feature-settings:normal;font-variation-settings:normal;text-indent:0;text-align:start;text-decoration:none;text-decoration-line:none;text-decoration-style:solid;text-decoration-color:#000000;letter-spacing:normal;word-spacing:normal;text-transform:none;writing-mode:lr-tb;direction:ltr;text-orientation:mixed;dominant-baseline:auto;baseline-shift:baseline;text-anchor:start;white-space:normal;shape-padding:0;shape-margin:0;inline-size:0;clip-rule:nonzero;display:inline;overflow:visible;visibility:visible;isolation:auto;mix-blend-mode:normal;color-interpolation:sRGB;color-interpolation-filters:linearRGB;solid-color:#000000;solid-opacity:1;vector-effect:none;fill:#ffffff;fill-opacity:1;fill-rule:nonzero;stroke:none;stroke-width:1.00012501;stroke-linecap:butt;stroke-linejoin:miter;stroke-miterlimit:4;stroke-dasharray:none;stroke-dashoffset:0;stroke-opacity:1;color-rendering:auto;image-rendering:auto;shape-rendering:auto;text-rendering:auto;enable-background:accumulate;stop-color:#000000;stop-opacity:1"
           d="M 179.65227,78.669625 211.28634,53.918704"
           id="path889" />
        <path
           style="color:#000000;font-style:normal;font-variant:normal;font-weight:normal;font-stretch:normal;font-size:medium;line-height:normal;font-family:sans-serif;font-variant-ligatures:normal;font-variant-position:normal;font-variant-caps:normal;font-variant-numeric:normal;font-variant-alternates:normal;font-variant-east-asian:normal;font-feature-settings:normal;font-variation-settings:normal;text-indent:0;text-align:start;text-decoration:none;text-decoration-line:none;text-decoration-style:solid;text-decoration-color:#000000;letter-spacing:normal;word-spacing:normal;text-transform:none;writing-mode:lr-tb;direction:ltr;text-orientation:mixed;dominant-baseline:auto;baseline-shift:baseline;text-anchor:start;white-space:normal;shape-padding:0;shape-margin:0;inline-size:0;clip-rule:nonzero;display:inline;overflow:visible;visibility:visible;isolation:auto;mix-blend-mode:normal;color-interpolation:sRGB;color-interpolation-filters:linearRGB;solid-color:#000000;solid-opacity:1;vector-effect:none;fill:#ffffff;fill-opacity:1;fill-rule:nonzero;stroke:none;stroke-width:1.00012501;stroke-linecap:butt;stroke-linejoin:miter;stroke-miterlimit:4;stroke-dasharray:none;stroke-dashoffset:0;stroke-opacity:1;color-rendering:auto;image-rendering:auto;shape-rendering:auto;text-rendering:auto;enable-background:accumulate;stop-color:#000000;stop-opacity:1"
           d="m 208.90039,50.867188 -31.63477,24.751953 4.77344,6.101562 31.63477,-24.751953 z"
           id="path891" />
      </g>
    </g>
  </g>
  <rect
     y="1.0583333"
     x="0"
     height="269.875"
     width="269.875"
     id="rect834"
     style="display:none;opacity:1;fill:#d5c4e6;fill-opacity:1;stroke:#000000;stroke-width:1.46499991;stroke-linecap:round;stroke-miterlimit:4;stroke-dasharray:none;stroke-opacity:1" />
</svg>
